{
  "rules": {
    "users": {
      "$uid": {
        ".read": "auth.uid === $uid",
        ".write": "auth.uid === $uid"
      }
    },
    "People": {
    	".read": true,
    	".write":true,
      ".indexOn": [
        "mCalculateLeftEyeSizeWidth",
        "mCalculateLeftEyeSizeHeight",
        "mCalculateRightEyeSizeWidth",
        "mCalculatedRightEyeSizeHeight",
        "mCalculateNoseSizeWidth",
        "mCalculateNoseSizeHeight",
        "mCalculateMouthSizeWidth",
        "mCalculateMouthSizeHeight",
        "mCalculateLeftEyeBrowSizeWidth",
        "mCalculateLeftEyeBrowSizeHeight",
        "mCalculateRightEyeBrowSizeWidth",
        "mCalculateRightEyeBrowSizeHeight",
        "mCalculateFaceSizeWidth",
        "mCalculateFaceSizeHeight"

      ]
      
    		}
  }
}
